EESchema Schematic File Version 4
EELAYER 30 0
EELAYER END
$Descr A4 11693 8268
encoding utf-8
Sheet 1 1
Title "Hologlass"
Date "2019-11-16"
Rev ""
Comp "Weirdloop"
Comment1 ""
Comment2 ""
Comment3 ""
Comment4 ""
$EndDescr
$Comp
L dk_Embedded-Microcontrollers:ATMEGA328PB-AU U1
U 1 1 5DBC7DF8
P 3050 4150
F 0 "U1" H 2150 4900 60  0000 C CNN
F 1 "ATMEGA328PB-AU" H 2500 4800 60  0000 C CNN
F 2 "Package_QFP:TQFP-32_7x7mm_P0.8mm" H 3250 4350 60  0001 L CNN
F 3 "http://www.microchip.com/mymicrochip/filehandler.aspx?ddocname=en589666" H 3250 4450 60  0001 L CNN
F 4 "ATMEGA328PB-AU-ND" H 3250 4550 60  0001 L CNN "Digi-Key_PN"
F 5 "ATMEGA328PB-AU" H 3250 4650 60  0001 L CNN "MPN"
F 6 "Integrated Circuits (ICs)" H 3250 4750 60  0001 L CNN "Category"
F 7 "Embedded - Microcontrollers" H 3250 4850 60  0001 L CNN "Family"
F 8 "http://www.microchip.com/mymicrochip/filehandler.aspx?ddocname=en589666" H 3250 4950 60  0001 L CNN "DK_Datasheet_Link"
F 9 "/product-detail/en/microchip-technology/ATMEGA328PB-AU/ATMEGA328PB-AU-ND/5638812" H 3250 5050 60  0001 L CNN "DK_Detail_Page"
F 10 "IC MCU 8BIT 32KB FLASH 32TQFP" H 3250 5150 60  0001 L CNN "Description"
F 11 "Microchip Technology" H 3250 5250 60  0001 L CNN "Manufacturer"
F 12 "Active" H 3250 5350 60  0001 L CNN "Status"
	1    3050 4150
	1    0    0    -1  
$EndComp
$Comp
L SparkFun-PowerSymbols:VCC #SUPPLY05
U 1 1 5DBCB73C
P 3150 3250
F 0 "#SUPPLY05" H 3200 3250 45  0001 L BNN
F 1 "VCC" H 3150 3400 45  0000 C CNN
F 2 "XXX-00000" H 3150 3431 60  0001 C CNN
F 3 "" H 3150 3250 60  0001 C CNN
	1    3150 3250
	1    0    0    -1  
$EndComp
Wire Wire Line
	3050 3550 3050 3400
Wire Wire Line
	3050 3400 3150 3400
Wire Wire Line
	3150 3550 3150 3400
Connection ~ 3150 3400
$Comp
L power:GND #PWR05
U 1 1 5DBCDB24
P 3050 5900
F 0 "#PWR05" H 3050 5650 50  0001 C CNN
F 1 "GND" H 3055 5727 50  0000 C CNN
F 2 "" H 3050 5900 50  0001 C CNN
F 3 "" H 3050 5900 50  0001 C CNN
	1    3050 5900
	1    0    0    -1  
$EndComp
Wire Wire Line
	3050 5550 3050 5700
Wire Wire Line
	3150 5550 3150 5700
Wire Wire Line
	3150 5700 3050 5700
Connection ~ 3050 5700
Wire Wire Line
	3050 5700 3050 5900
$Comp
L SparkFun-Capacitors:22UF-0805-6.3V-20% C4
U 1 1 5DBCECB9
P 1550 5050
F 0 "C4" H 1700 5100 45  0000 L CNN
F 1 "18pF" H 1600 5000 45  0000 L CNN
F 2 "Capacitor_SMD:C_0805_2012Metric" H 1550 5300 20  0001 C CNN
F 3 "" H 1550 5050 50  0001 C CNN
F 4 "CAP-08402" H 1658 5016 60  0001 L CNN "Field4"
	1    1550 5050
	1    0    0    -1  
$EndComp
$Comp
L SparkFun-Capacitors:22UF-0805-6.3V-20% C2
U 1 1 5DBCF658
P 1150 5050
F 0 "C2" H 950 5100 45  0000 L CNN
F 1 "18pF" H 900 5000 45  0000 L CNN
F 2 "Capacitor_SMD:C_0805_2012Metric" H 1150 5300 20  0001 C CNN
F 3 "" H 1150 5050 50  0001 C CNN
F 4 "CAP-08402" H 1258 5016 60  0001 L CNN "Field4"
	1    1150 5050
	1    0    0    -1  
$EndComp
$Comp
L Device:Crystal_Small Y1
U 1 1 5DBCAB5B
P 1350 4550
F 0 "Y1" H 1350 4775 50  0000 C CNN
F 1 "Crystal_Small" H 1350 4684 50  0000 C CNN
F 2 "Crystal:Crystal_SMD_5032-2Pin_5.0x3.2mm" H 1350 4550 50  0001 C CNN
F 3 "~" H 1350 4550 50  0001 C CNN
	1    1350 4550
	1    0    0    -1  
$EndComp
Wire Wire Line
	1150 5150 1150 5400
Wire Wire Line
	1150 5400 1350 5400
Wire Wire Line
	1550 5150 1550 5400
Wire Wire Line
	1550 5400 1350 5400
Connection ~ 1350 5400
Wire Wire Line
	1250 4550 1150 4550
Wire Wire Line
	1150 4550 1150 4850
Wire Wire Line
	1450 4550 1550 4550
Wire Wire Line
	1550 4550 1550 4850
Wire Wire Line
	2550 4350 1150 4350
Wire Wire Line
	1150 4350 1150 4550
Connection ~ 1150 4550
Wire Wire Line
	2550 4450 1550 4450
Wire Wire Line
	1550 4450 1550 4550
Connection ~ 1550 4550
Wire Wire Line
	1350 5600 1350 5400
$Comp
L power:GND #PWR03
U 1 1 5DBCE054
P 1350 5600
F 0 "#PWR03" H 1350 5350 50  0001 C CNN
F 1 "GND" H 1355 5427 50  0000 C CNN
F 2 "" H 1350 5600 50  0001 C CNN
F 3 "" H 1350 5600 50  0001 C CNN
	1    1350 5600
	1    0    0    -1  
$EndComp
$Comp
L SparkFun-Capacitors:0.1UF-0603-25V-5% C1
U 1 1 5DD0420A
P 1250 1650
F 0 "C1" H 1358 1742 45  0000 L CNN
F 1 "0.1uF" H 1358 1658 45  0000 L CNN
F 2 "Capacitor_SMD:C_0805_2012Metric" H 1250 1900 20  0001 C CNN
F 3 "" H 1250 1650 50  0001 C CNN
F 4 "CAP-08604" H 1358 1616 60  0001 L CNN "Field4"
	1    1250 1650
	1    0    0    -1  
$EndComp
$Comp
L SparkFun-PowerSymbols:VCC #SUPPLY01
U 1 1 5DD0642D
P 1250 1250
F 0 "#SUPPLY01" H 1300 1250 45  0001 L BNN
F 1 "VCC" H 1250 1450 45  0000 C CNN
F 2 "XXX-00000" H 1250 1431 60  0001 C CNN
F 3 "" H 1250 1250 60  0001 C CNN
	1    1250 1250
	1    0    0    -1  
$EndComp
$Comp
L power:GND #PWR01
U 1 1 5DD067EC
P 1250 2000
F 0 "#PWR01" H 1250 1750 50  0001 C CNN
F 1 "GND" H 1255 1827 50  0000 C CNN
F 2 "" H 1250 2000 50  0001 C CNN
F 3 "" H 1250 2000 50  0001 C CNN
	1    1250 2000
	1    0    0    -1  
$EndComp
Wire Wire Line
	1250 1250 1250 1450
Wire Wire Line
	1250 2000 1250 1750
$Comp
L RF_Bluetooth:RN4871 U3
U 1 1 5DD130C1
P 6350 1650
F 0 "U3" H 6600 2350 50  0000 C CNN
F 1 "RN4871" H 6700 2250 50  0000 C CNN
F 2 "RF_Module:Microchip_RN4871" H 6350 950 50  0001 C CNN
F 3 "http://ww1.microchip.com/downloads/en/DeviceDoc/50002489A.pdf" H 5850 2200 50  0001 C CNN
	1    6350 1650
	1    0    0    -1  
$EndComp
$Comp
L SparkFun-PowerSymbols:VCC #SUPPLY04
U 1 1 5DD155E1
P 2050 5250
F 0 "#SUPPLY04" H 2100 5250 45  0001 L BNN
F 1 "VCC" H 2050 5400 45  0000 C CNN
F 2 "XXX-00000" H 2050 5431 60  0001 C CNN
F 3 "" H 2050 5250 60  0001 C CNN
	1    2050 5250
	1    0    0    -1  
$EndComp
Wire Wire Line
	2050 5250 2050 5350
Wire Wire Line
	2050 5350 2550 5350
Wire Wire Line
	3150 3250 3150 3400
$Comp
L SparkFun-Capacitors:0.1UF-0603-25V-5% C3
U 1 1 5DD1ED16
P 1650 1650
F 0 "C3" H 1758 1742 45  0000 L CNN
F 1 "0.1uF" H 1758 1658 45  0000 L CNN
F 2 "Capacitor_SMD:C_0805_2012Metric" H 1650 1900 20  0001 C CNN
F 3 "" H 1650 1650 50  0001 C CNN
F 4 "CAP-08604" H 1758 1616 60  0001 L CNN "Field4"
	1    1650 1650
	1    0    0    -1  
$EndComp
$Comp
L SparkFun-PowerSymbols:VCC #SUPPLY02
U 1 1 5DD1ED1C
P 1650 1250
F 0 "#SUPPLY02" H 1700 1250 45  0001 L BNN
F 1 "VCC" H 1650 1450 45  0000 C CNN
F 2 "XXX-00000" H 1650 1431 60  0001 C CNN
F 3 "" H 1650 1250 60  0001 C CNN
	1    1650 1250
	1    0    0    -1  
$EndComp
$Comp
L power:GND #PWR02
U 1 1 5DD1ED22
P 1650 2000
F 0 "#PWR02" H 1650 1750 50  0001 C CNN
F 1 "GND" H 1655 1827 50  0000 C CNN
F 2 "" H 1650 2000 50  0001 C CNN
F 3 "" H 1650 2000 50  0001 C CNN
	1    1650 2000
	1    0    0    -1  
$EndComp
Wire Wire Line
	1650 1250 1650 1450
Wire Wire Line
	1650 2000 1650 1750
$Comp
L SparkFun-Capacitors:0.1UF-0603-25V-5% C5
U 1 1 5DD1FD30
P 2050 1650
F 0 "C5" H 2158 1742 45  0000 L CNN
F 1 "0.1uF" H 2158 1658 45  0000 L CNN
F 2 "Capacitor_SMD:C_0805_2012Metric" H 2050 1900 20  0001 C CNN
F 3 "" H 2050 1650 50  0001 C CNN
F 4 "CAP-08604" H 2158 1616 60  0001 L CNN "Field4"
	1    2050 1650
	1    0    0    -1  
$EndComp
$Comp
L SparkFun-PowerSymbols:VCC #SUPPLY03
U 1 1 5DD1FD36
P 2050 1250
F 0 "#SUPPLY03" H 2100 1250 45  0001 L BNN
F 1 "VCC" H 2050 1450 45  0000 C CNN
F 2 "XXX-00000" H 2050 1431 60  0001 C CNN
F 3 "" H 2050 1250 60  0001 C CNN
	1    2050 1250
	1    0    0    -1  
$EndComp
$Comp
L power:GND #PWR04
U 1 1 5DD1FD3C
P 2050 2000
F 0 "#PWR04" H 2050 1750 50  0001 C CNN
F 1 "GND" H 2055 1827 50  0000 C CNN
F 2 "" H 2050 2000 50  0001 C CNN
F 3 "" H 2050 2000 50  0001 C CNN
	1    2050 2000
	1    0    0    -1  
$EndComp
Wire Wire Line
	2050 1250 2050 1450
Wire Wire Line
	2050 2000 2050 1750
$Comp
L power:GND #PWR08
U 1 1 5DD26049
P 8700 5050
F 0 "#PWR08" H 8700 4800 50  0001 C CNN
F 1 "GND" H 8705 4877 50  0000 C CNN
F 2 "" H 8700 5050 50  0001 C CNN
F 3 "" H 8700 5050 50  0001 C CNN
	1    8700 5050
	1    0    0    -1  
$EndComp
$Comp
L SparkFun-PowerSymbols:VCC #SUPPLY07
U 1 1 5DD262B2
P 8700 4750
F 0 "#SUPPLY07" H 8750 4750 45  0001 L BNN
F 1 "VCC" H 8700 4900 45  0000 C CNN
F 2 "XXX-00000" H 8700 4931 60  0001 C CNN
F 3 "" H 8700 4750 60  0001 C CNN
	1    8700 4750
	1    0    0    -1  
$EndComp
Wire Wire Line
	8700 4950 8700 5050
Wire Wire Line
	8700 4850 8700 4750
Wire Wire Line
	6350 1050 6350 800 
Text Label 6350 800  0    50   ~ 0
VBAT
$Comp
L power:GND #PWR09
U 1 1 5DD38210
P 6250 2550
F 0 "#PWR09" H 6250 2300 50  0001 C CNN
F 1 "GND" H 6255 2377 50  0000 C CNN
F 2 "" H 6250 2550 50  0001 C CNN
F 3 "" H 6250 2550 50  0001 C CNN
	1    6250 2550
	1    0    0    -1  
$EndComp
Wire Wire Line
	6250 2250 6250 2400
Wire Wire Line
	6250 2400 6450 2400
Wire Wire Line
	6450 2400 6450 2250
Connection ~ 6250 2400
Wire Wire Line
	6250 2400 6250 2550
Wire Wire Line
	5650 1350 5400 1350
Wire Wire Line
	5650 1450 5250 1450
Text Label 5400 1350 0    50   ~ 0
BTRX
Text Label 5250 1450 0    50   ~ 0
BTTX
Wire Wire Line
	5650 1750 5250 1750
Text Label 5250 1750 0    50   ~ 0
RST
Wire Wire Line
	3350 5150 3650 5150
Wire Wire Line
	3350 5050 3550 5050
Text Label 3400 5050 0    50   ~ 0
ATTX
Text Label 3500 5150 0    50   ~ 0
ATRX
Wire Wire Line
	8100 4650 8300 4650
Text Label 8300 4750 0    50   ~ 0
ATRX
Text Label 8150 4650 0    50   ~ 0
ATTX
Wire Wire Line
	8100 5050 8400 5050
Text Label 8200 5050 0    50   ~ 0
ATRST
Wire Wire Line
	3350 4850 3650 4850
Text Label 3450 4850 0    50   ~ 0
ATRST
$Comp
L Connector:Conn_01x04_Female J3
U 1 1 5DD55B4B
P 4300 1350
F 0 "J3" H 4328 1326 50  0000 L CNN
F 1 "Display" H 4328 1235 50  0000 L CNN
F 2 "Connectors:1X04" H 4300 1350 50  0001 C CNN
F 3 "~" H 4300 1350 50  0001 C CNN
	1    4300 1350
	1    0    0    -1  
$EndComp
Wire Wire Line
	4100 1250 3850 1250
Wire Wire Line
	4100 1350 3850 1350
Wire Wire Line
	4100 1450 3850 1450
Wire Wire Line
	4100 1550 3850 1550
Text Label 3850 1250 0    50   ~ 0
GND
Text Label 3850 1350 0    50   ~ 0
VCC
Text Label 3850 1450 0    50   ~ 0
SCL
Text Label 3850 1550 0    50   ~ 0
SDA
Wire Wire Line
	2550 4950 2250 4950
Wire Wire Line
	2550 5050 2250 5050
Text Label 2250 4950 0    50   ~ 0
SDA
Text Label 2250 5050 0    50   ~ 0
SCL
$Comp
L Connector:Conn_01x03_Male J2
U 1 1 5DD6859D
P 2750 2450
F 0 "J2" H 2858 2731 50  0000 C CNN
F 1 "Button" H 2858 2640 50  0000 C CNN
F 2 "Connectors:1X03" H 2750 2450 50  0001 C CNN
F 3 "~" H 2750 2450 50  0001 C CNN
	1    2750 2450
	1    0    0    -1  
$EndComp
Wire Wire Line
	2950 2350 3200 2350
Wire Wire Line
	2950 2450 3200 2450
Wire Wire Line
	2950 2550 3200 2550
Text Label 3200 2450 0    50   ~ 0
GND
Text Label 3200 2350 0    50   ~ 0
VCC
Text Label 3200 2550 0    50   ~ 0
BOUT
Wire Wire Line
	3350 4750 3650 4750
Text Label 3450 4750 0    50   ~ 0
BOUT
$Comp
L Connector_Generic:Conn_02x03_Odd_Even J4
U 1 1 5DD707C6
P 4250 2400
F 0 "J4" H 4300 2717 50  0000 C CNN
F 1 "ICSP" H 4300 2626 50  0000 C CNN
F 2 "Connectors:2X3" H 4250 2400 50  0001 C CNN
F 3 "~" H 4250 2400 50  0001 C CNN
	1    4250 2400
	1    0    0    -1  
$EndComp
Wire Wire Line
	4050 2500 3800 2500
Text Label 3800 2500 0    50   ~ 0
VCC
Wire Wire Line
	4550 2300 4800 2300
Text Label 4600 2300 0    50   ~ 0
RESET
Wire Wire Line
	4050 2300 3800 2300
Text Label 3800 2300 0    50   ~ 0
GND
Wire Wire Line
	4050 2400 3800 2400
Wire Wire Line
	4550 2400 4800 2400
Wire Wire Line
	4550 2500 4800 2500
Text Label 4650 2400 0    50   ~ 0
SCK
Text Label 4650 2500 0    50   ~ 0
MISO
Text Label 3800 2400 0    50   ~ 0
MOSI
Wire Wire Line
	2550 5150 2250 5150
Text Label 2250 5150 0    50   ~ 0
RESET
Wire Wire Line
	2550 4150 2250 4150
Text Label 2250 4150 0    50   ~ 0
MISO
Wire Wire Line
	2550 4050 2250 4050
Text Label 2250 4050 0    50   ~ 0
MOSI
Wire Wire Line
	2550 4250 2250 4250
Text Label 2250 4250 0    50   ~ 0
SCK
$Comp
L SparkFun-LED:LED-BLUE1206 D1
U 1 1 5DD844E4
P 3800 4650
F 0 "D1" V 3920 4600 45  0000 C CNN
F 1 "LED-BLUE1206" V 4026 4600 45  0001 C CNN
F 2 "LED-1206" V 3600 4650 20  0001 C CNN
F 3 "" H 3800 4650 50  0001 C CNN
F 4 "DIO-09911" V 3931 4600 60  0001 C CNN "Field4"
	1    3800 4650
	0    -1   -1   0   
$EndComp
Wire Wire Line
	3350 4650 3700 4650
$Comp
L power:GND #PWR0101
U 1 1 5DD8A359
P 4050 5450
F 0 "#PWR0101" H 4050 5200 50  0001 C CNN
F 1 "GND" H 4055 5277 50  0000 C CNN
F 2 "" H 4050 5450 50  0001 C CNN
F 3 "" H 4050 5450 50  0001 C CNN
	1    4050 5450
	1    0    0    -1  
$EndComp
Wire Wire Line
	4050 4650 4050 4850
Wire Wire Line
	4000 4650 4050 4650
$Comp
L Device:R R2
U 1 1 5DDAC79F
P 4050 5000
F 0 "R2" H 4120 5046 50  0000 L CNN
F 1 "150" H 4120 4955 50  0000 L CNN
F 2 "Resistor_SMD:R_0805_2012Metric_Pad1.15x1.40mm_HandSolder" V 3980 5000 50  0001 C CNN
F 3 "~" H 4050 5000 50  0001 C CNN
	1    4050 5000
	1    0    0    -1  
$EndComp
Wire Wire Line
	4050 5150 4050 5450
Wire Wire Line
	8100 4950 8700 4950
Wire Wire Line
	8100 4850 8700 4850
Wire Wire Line
	8100 4750 8450 4750
Wire Wire Line
	5750 3500 5750 3850
Connection ~ 5750 3500
Wire Wire Line
	5300 3500 5750 3500
Wire Wire Line
	5300 3600 5300 3500
Connection ~ 5300 4150
Wire Wire Line
	5300 3900 5300 4150
Wire Wire Line
	5750 3250 5750 3500
Wire Wire Line
	6250 4500 6250 4850
Connection ~ 6250 4500
Wire Wire Line
	5750 4500 5750 4550
Connection ~ 5750 4500
Wire Wire Line
	5750 4500 6250 4500
Wire Wire Line
	5750 4950 6800 4950
Connection ~ 5750 4950
Wire Wire Line
	5750 4850 5750 4950
Wire Wire Line
	5750 4450 5750 4500
Wire Wire Line
	5300 4150 5450 4150
Wire Wire Line
	6250 3850 6250 4500
$Comp
L SparkFun-Capacitors:10UF-POLAR-EIA3216-16V-10%_TANT_ C7
U 1 1 5DD70DC7
P 5750 4650
F 0 "C7" H 5878 4600 45  0000 L CNN
F 1 "10UF-POLAR-EIA3216-16V-10%_TANT_" H 5878 4611 45  0001 L CNN
F 2 "Capacitors:EIA3216" H 5750 4900 20  0001 C CNN
F 3 "" H 5750 4650 50  0001 C CNN
F 4 "CAP-00811" H 5878 4516 60  0001 L CNN "Field4"
	1    5750 4650
	1    0    0    -1  
$EndComp
$Comp
L SparkFun-Capacitors:10UF-POLAR-EIA3216-16V-10%_TANT_ C6
U 1 1 5DD70166
P 5300 3700
F 0 "C6" H 5428 3650 45  0000 L CNN
F 1 "10UF-POLAR-EIA3216-16V-10%_TANT_" H 5428 3661 45  0001 L CNN
F 2 "Capacitors:EIA3216" H 5300 3950 20  0001 C CNN
F 3 "" H 5300 3700 50  0001 C CNN
F 4 "CAP-00811" H 5428 3566 60  0001 L CNN "Field4"
	1    5300 3700
	1    0    0    -1  
$EndComp
$Comp
L Regulator_Linear:LM1117-3.3 U2
U 1 1 5DD6F239
P 5750 4150
F 0 "U2" V 5704 4255 50  0000 L CNN
F 1 "LM1117-3.3" V 5795 4255 50  0000 L CNN
F 2 "Package_TO_SOT_SMD:SOT-223-3_TabPin2" H 5750 4150 50  0001 C CNN
F 3 "http://www.ti.com/lit/ds/symlink/lm1117.pdf" H 5750 4150 50  0001 C CNN
	1    5750 4150
	0    1    1    0   
$EndComp
Text Label 6700 5750 0    50   ~ 0
RST
Wire Wire Line
	6250 5750 6250 5850
Connection ~ 6250 5750
Wire Wire Line
	6250 5750 6700 5750
Wire Wire Line
	6250 5650 6250 5750
Wire Wire Line
	6250 6250 6250 6150
$Comp
L power:GND #PWR07
U 1 1 5DD496C4
P 6250 6250
F 0 "#PWR07" H 6250 6000 50  0001 C CNN
F 1 "GND" H 6255 6077 50  0000 C CNN
F 2 "" H 6250 6250 50  0001 C CNN
F 3 "" H 6250 6250 50  0001 C CNN
	1    6250 6250
	1    0    0    -1  
$EndComp
Wire Wire Line
	6250 5050 6800 5050
Wire Wire Line
	6250 5050 6250 5150
Text Label 6600 4250 0    50   ~ 0
BTTX
Text Label 6700 4400 0    50   ~ 0
BTRX
Wire Wire Line
	6600 4750 6600 4250
Wire Wire Line
	6800 4750 6600 4750
Wire Wire Line
	6700 4650 6700 4400
Wire Wire Line
	6800 4650 6700 4650
Wire Wire Line
	5300 4950 5750 4950
Wire Wire Line
	6250 4850 6800 4850
Text Label 6250 3850 0    50   ~ 0
VBAT
Connection ~ 5300 4950
Wire Wire Line
	5300 4950 5300 4150
Wire Wire Line
	5300 4950 5300 5100
$Comp
L SparkFun-PowerSymbols:VCC #SUPPLY06
U 1 1 5DD2F46A
P 5750 3250
F 0 "#SUPPLY06" H 5800 3250 45  0001 L BNN
F 1 "VCC" H 5750 3400 45  0000 C CNN
F 2 "XXX-00000" H 5750 3431 60  0001 C CNN
F 3 "" H 5750 3250 60  0001 C CNN
	1    5750 3250
	1    0    0    -1  
$EndComp
$Comp
L power:GND #PWR06
U 1 1 5DD25B2F
P 5300 5100
F 0 "#PWR06" H 5300 4850 50  0001 C CNN
F 1 "GND" H 5305 4927 50  0000 C CNN
F 2 "" H 5300 5100 50  0001 C CNN
F 3 "" H 5300 5100 50  0001 C CNN
	1    5300 5100
	1    0    0    -1  
$EndComp
$Comp
L SparkFun-Boards:SPARKFUN_LOGIC_LEVEL_CONVERTER B1
U 1 1 5DD1074F
P 7450 4950
F 0 "B1" H 7450 5450 45  0000 C CNN
F 1 "SPARKFUN_LOGIC_LEVEL_CONVERTER" H 7450 5526 45  0001 C CNN
F 2 "SPARKFUN_LOGIC_LEVEL_CONVERTER" H 7450 5400 20  0001 C CNN
F 3 "" H 7450 4950 50  0001 C CNN
F 4 "XXX-00000" H 7450 5431 60  0001 C CNN "Field4"
	1    7450 4950
	1    0    0    -1  
$EndComp
$Comp
L SparkFun-Capacitors:22UF-0805-6.3V-20% C8
U 1 1 5DD0E6DB
P 6250 6050
F 0 "C8" H 6050 6100 45  0000 L CNN
F 1 "1uF" H 6050 6000 45  0000 L CNN
F 2 "Capacitor_SMD:C_0805_2012Metric" H 6250 6300 20  0001 C CNN
F 3 "" H 6250 6050 50  0001 C CNN
F 4 "CAP-08402" H 6358 6016 60  0001 L CNN "Field4"
	1    6250 6050
	1    0    0    -1  
$EndComp
$Comp
L pspice:R R1
U 1 1 5DD0D5F9
P 6250 5400
F 0 "R1" H 6318 5446 50  0000 L CNN
F 1 "4.7K" H 6318 5355 50  0000 L CNN
F 2 "Resistor_SMD:R_0805_2012Metric" H 6250 5400 50  0001 C CNN
F 3 "~" H 6250 5400 50  0001 C CNN
	1    6250 5400
	1    0    0    -1  
$EndComp
Text Notes 1000 900  0    50   ~ 0
Decoupling Capacitors
Text Notes 2750 900  0    50   ~ 0
Connectors
Text Notes 5400 900  0    50   ~ 0
Bluetooth
Text Notes 1050 3650 0    50   ~ 0
Microcontroller
Text Notes 7550 4200 0    50   ~ 0
Level Shifter
Text Notes 4700 3250 0    50   ~ 0
Voltage Regulator
Text Notes 3750 2000 0    50   ~ 0
ICSP Connector
$Comp
L SparkFun-Capacitors:0.1UF-0603-25V-5% C9
U 1 1 5DF6AFAD
P 3000 1700
F 0 "C9" V 2950 1600 45  0000 L CNN
F 1 "0.1uF" V 3100 1600 45  0000 L CNN
F 2 "Capacitor_SMD:C_0805_2012Metric" H 3000 1950 20  0001 C CNN
F 3 "" H 3000 1700 50  0001 C CNN
F 4 "CAP-08604" H 3108 1666 60  0001 L CNN "Field4"
	1    3000 1700
	0    1    1    0   
$EndComp
$Comp
L Connector:Conn_01x02_Male J1
U 1 1 5DD626D0
P 2900 1100
F 0 "J1" H 3008 1281 50  0000 C CNN
F 1 "Charger" H 3008 1190 50  0000 C CNN
F 2 "Connectors:1X02" H 2900 1100 50  0001 C CNN
F 3 "~" H 2900 1100 50  0001 C CNN
	1    2900 1100
	0    1    1    0   
$EndComp
Wire Wire Line
	2800 1700 2900 1700
Wire Wire Line
	2800 1300 2800 1700
Wire Wire Line
	2900 1500 3200 1500
Wire Wire Line
	3200 1500 3200 1700
Wire Wire Line
	2900 1300 2900 1500
Wire Wire Line
	3200 1700 3200 1950
Connection ~ 3200 1700
Wire Wire Line
	2800 1700 2800 1950
Connection ~ 2800 1700
Text Label 2800 1950 3    50   ~ 0
GND
Text Label 3200 1950 3    50   ~ 0
VCC
$Comp
L Jumper:SolderJumper_2_Open JP1
U 1 1 5DFAB209
P 5300 1950
F 0 "JP1" H 5300 1850 50  0000 C CNN
F 1 "SolderJumper_2_Open" H 5300 2064 50  0001 C CNN
F 2 "Jumper:SolderJumper-2_P1.3mm_Open_RoundedPad1.0x1.5mm" H 5300 1950 50  0001 C CNN
F 3 "~" H 5300 1950 50  0001 C CNN
	1    5300 1950
	1    0    0    -1  
$EndComp
Wire Wire Line
	5650 1950 5450 1950
$Comp
L power:GND #PWR0102
U 1 1 5DFAF268
P 5150 2250
F 0 "#PWR0102" H 5150 2000 50  0001 C CNN
F 1 "GND" H 5155 2077 50  0000 C CNN
F 2 "" H 5150 2250 50  0001 C CNN
F 3 "" H 5150 2250 50  0001 C CNN
	1    5150 2250
	1    0    0    -1  
$EndComp
Wire Wire Line
	5150 1950 5150 2250
$EndSCHEMATC
