G04 #@! TF.GenerationSoftware,KiCad,Pcbnew,5.1.5-1.fc31*
G04 #@! TF.CreationDate,2019-12-15T18:46:27+01:00*
G04 #@! TF.ProjectId,HoloGlass,486f6c6f-476c-4617-9373-2e6b69636164,rev?*
G04 #@! TF.SameCoordinates,Original*
G04 #@! TF.FileFunction,Copper,L4,Bot*
G04 #@! TF.FilePolarity,Positive*
%FSLAX46Y46*%
G04 Gerber Fmt 4.6, Leading zero omitted, Abs format (unit mm)*
G04 Created by KiCad (PCBNEW 5.1.5-1.fc31) date 2019-12-15 18:46:27*
%MOMM*%
%LPD*%
G04 APERTURE LIST*
%ADD10C,1.879600*%
%ADD11C,0.800000*%
%ADD12C,0.400000*%
%ADD13C,0.250000*%
%ADD14C,0.254000*%
G04 APERTURE END LIST*
D10*
X40005000Y-70485000D03*
X40005000Y-67945000D03*
X40005000Y-60325000D03*
X40005000Y-57785000D03*
X40005000Y-62865000D03*
X50165000Y-70485000D03*
X50165000Y-67945000D03*
X50165000Y-60325000D03*
X50165000Y-57785000D03*
X50165000Y-62865000D03*
X50165000Y-65405000D03*
X40005000Y-65405000D03*
X52070000Y-40208200D03*
X54610000Y-40208200D03*
X57150000Y-40208200D03*
X59690000Y-40208200D03*
X70739000Y-59690000D03*
X70739000Y-57150000D03*
X70739000Y-54610000D03*
X68580000Y-40640000D03*
X71120000Y-40640000D03*
X70739000Y-50800000D03*
X68199000Y-50800000D03*
X70739000Y-48260000D03*
X68199000Y-48260000D03*
X70739000Y-45720000D03*
X68199000Y-45720000D03*
D11*
X50165000Y-42395000D03*
X63375540Y-67058540D03*
X54610000Y-51760000D03*
X54099460Y-67185540D03*
X58102500Y-43002200D03*
X48183800Y-42697400D03*
X63487300Y-52019200D03*
X41033700Y-52387500D03*
X41960800Y-43332400D03*
X39395400Y-45707300D03*
X49212500Y-55397400D03*
X51092100Y-55219600D03*
X53289200Y-61810900D03*
X39370000Y-40386000D03*
X44221400Y-48361600D03*
X56718200Y-51790600D03*
X62509400Y-42938700D03*
X53657500Y-43510200D03*
X60198000Y-45212000D03*
X53448000Y-49930000D03*
X52806600Y-56311799D03*
X52412900Y-43332400D03*
X51435000Y-42633900D03*
X49707800Y-39090600D03*
X48298100Y-47904400D03*
D12*
X50165000Y-52705000D02*
X40005000Y-62865000D01*
X50165000Y-42395000D02*
X50165000Y-52705000D01*
X40944799Y-63804799D02*
X40005000Y-62865000D01*
X49014801Y-71874801D02*
X40944799Y-63804799D01*
X50832105Y-71874801D02*
X49014801Y-71874801D01*
X56371367Y-66335539D02*
X50832105Y-71874801D01*
X62652539Y-66335539D02*
X56371367Y-66335539D01*
X63375540Y-67058540D02*
X62652539Y-66335539D01*
D13*
X60198000Y-45212000D02*
X60198000Y-45212000D01*
X63246000Y-48260000D02*
X60198000Y-45212000D01*
X68199000Y-48260000D02*
X63246000Y-48260000D01*
X54318000Y-50800000D02*
X53448000Y-49930000D01*
X68199000Y-50800000D02*
X54318000Y-50800000D01*
X52832000Y-59309000D02*
X52832000Y-56337199D01*
X55219600Y-61696600D02*
X52832000Y-59309000D01*
X52832000Y-56337199D02*
X52806600Y-56311799D01*
X70739000Y-59690000D02*
X68732400Y-61696600D01*
X68732400Y-61696600D02*
X55219600Y-61696600D01*
X57467500Y-42430700D02*
X59690000Y-40208200D01*
X52412900Y-43332400D02*
X53314600Y-42430700D01*
X53314600Y-42430700D02*
X57467500Y-42430700D01*
X56210201Y-41147999D02*
X57150000Y-40208200D01*
X55448200Y-41910000D02*
X56210201Y-41147999D01*
X51435000Y-42633900D02*
X52158900Y-41910000D01*
X52158900Y-41910000D02*
X55448200Y-41910000D01*
X48698099Y-47504401D02*
X48298100Y-47904400D01*
X49288700Y-42124298D02*
X49288700Y-46913800D01*
X49288700Y-46913800D02*
X48698099Y-47504401D01*
X49707800Y-39090600D02*
X49707800Y-41705198D01*
X49707800Y-41705198D02*
X49288700Y-42124298D01*
D14*
G36*
X38781773Y-63868877D02*
G01*
X39001123Y-64088227D01*
X39137714Y-64179495D01*
X39092129Y-64312524D01*
X40005000Y-65225395D01*
X40019143Y-65211253D01*
X40198748Y-65390858D01*
X40184605Y-65405000D01*
X41097476Y-66317871D01*
X41355723Y-66229377D01*
X41490597Y-65950024D01*
X41568381Y-65649725D01*
X41570570Y-65611437D01*
X48070132Y-72111000D01*
X38760000Y-72111000D01*
X38760000Y-71456291D01*
X38781773Y-71488877D01*
X39001123Y-71708227D01*
X39259052Y-71880570D01*
X39545648Y-71999282D01*
X39849896Y-72059800D01*
X40160104Y-72059800D01*
X40464352Y-71999282D01*
X40750948Y-71880570D01*
X41008877Y-71708227D01*
X41228227Y-71488877D01*
X41400570Y-71230948D01*
X41519282Y-70944352D01*
X41579800Y-70640104D01*
X41579800Y-70329896D01*
X41519282Y-70025648D01*
X41400570Y-69739052D01*
X41228227Y-69481123D01*
X41008877Y-69261773D01*
X40938876Y-69215000D01*
X41008877Y-69168227D01*
X41228227Y-68948877D01*
X41400570Y-68690948D01*
X41519282Y-68404352D01*
X41579800Y-68100104D01*
X41579800Y-67789896D01*
X41519282Y-67485648D01*
X41400570Y-67199052D01*
X41228227Y-66941123D01*
X41008877Y-66721773D01*
X40872286Y-66630505D01*
X40917871Y-66497476D01*
X40005000Y-65584605D01*
X39092129Y-66497476D01*
X39137714Y-66630505D01*
X39001123Y-66721773D01*
X38781773Y-66941123D01*
X38760000Y-66973709D01*
X38760000Y-66265605D01*
X38912524Y-66317871D01*
X39825395Y-65405000D01*
X38912524Y-64492129D01*
X38760000Y-64544395D01*
X38760000Y-63836291D01*
X38781773Y-63868877D01*
G37*
X38781773Y-63868877D02*
X39001123Y-64088227D01*
X39137714Y-64179495D01*
X39092129Y-64312524D01*
X40005000Y-65225395D01*
X40019143Y-65211253D01*
X40198748Y-65390858D01*
X40184605Y-65405000D01*
X41097476Y-66317871D01*
X41355723Y-66229377D01*
X41490597Y-65950024D01*
X41568381Y-65649725D01*
X41570570Y-65611437D01*
X48070132Y-72111000D01*
X38760000Y-72111000D01*
X38760000Y-71456291D01*
X38781773Y-71488877D01*
X39001123Y-71708227D01*
X39259052Y-71880570D01*
X39545648Y-71999282D01*
X39849896Y-72059800D01*
X40160104Y-72059800D01*
X40464352Y-71999282D01*
X40750948Y-71880570D01*
X41008877Y-71708227D01*
X41228227Y-71488877D01*
X41400570Y-71230948D01*
X41519282Y-70944352D01*
X41579800Y-70640104D01*
X41579800Y-70329896D01*
X41519282Y-70025648D01*
X41400570Y-69739052D01*
X41228227Y-69481123D01*
X41008877Y-69261773D01*
X40938876Y-69215000D01*
X41008877Y-69168227D01*
X41228227Y-68948877D01*
X41400570Y-68690948D01*
X41519282Y-68404352D01*
X41579800Y-68100104D01*
X41579800Y-67789896D01*
X41519282Y-67485648D01*
X41400570Y-67199052D01*
X41228227Y-66941123D01*
X41008877Y-66721773D01*
X40872286Y-66630505D01*
X40917871Y-66497476D01*
X40005000Y-65584605D01*
X39092129Y-66497476D01*
X39137714Y-66630505D01*
X39001123Y-66721773D01*
X38781773Y-66941123D01*
X38760000Y-66973709D01*
X38760000Y-66265605D01*
X38912524Y-66317871D01*
X39825395Y-65405000D01*
X38912524Y-64492129D01*
X38760000Y-64544395D01*
X38760000Y-63836291D01*
X38781773Y-63868877D01*
G36*
X73000001Y-72111000D02*
G01*
X51776773Y-72111000D01*
X56717235Y-67170539D01*
X62306671Y-67170539D01*
X62351448Y-67215315D01*
X62380314Y-67360438D01*
X62458335Y-67548796D01*
X62571603Y-67718314D01*
X62715766Y-67862477D01*
X62885284Y-67975745D01*
X63073642Y-68053766D01*
X63273601Y-68093540D01*
X63477479Y-68093540D01*
X63677438Y-68053766D01*
X63865796Y-67975745D01*
X64035314Y-67862477D01*
X64179477Y-67718314D01*
X64292745Y-67548796D01*
X64370766Y-67360438D01*
X64410540Y-67160479D01*
X64410540Y-66956601D01*
X64370766Y-66756642D01*
X64292745Y-66568284D01*
X64179477Y-66398766D01*
X64035314Y-66254603D01*
X63865796Y-66141335D01*
X63677438Y-66063314D01*
X63532315Y-66034448D01*
X63271984Y-65774117D01*
X63245830Y-65742248D01*
X63118685Y-65637903D01*
X62973626Y-65560367D01*
X62816228Y-65512621D01*
X62693558Y-65500539D01*
X62693557Y-65500539D01*
X62652539Y-65496499D01*
X62611521Y-65500539D01*
X56412374Y-65500539D01*
X56371366Y-65496500D01*
X56330358Y-65500539D01*
X56330348Y-65500539D01*
X56207678Y-65512621D01*
X56050280Y-65560367D01*
X55905221Y-65637903D01*
X55778076Y-65742248D01*
X55751926Y-65774112D01*
X54942200Y-66583838D01*
X54903397Y-66525766D01*
X54759234Y-66381603D01*
X54589716Y-66268335D01*
X54401358Y-66190314D01*
X54201399Y-66150540D01*
X53997521Y-66150540D01*
X53797562Y-66190314D01*
X53609204Y-66268335D01*
X53439686Y-66381603D01*
X53295523Y-66525766D01*
X53182255Y-66695284D01*
X53104234Y-66883642D01*
X53064460Y-67083601D01*
X53064460Y-67287479D01*
X53104234Y-67487438D01*
X53182255Y-67675796D01*
X53295523Y-67845314D01*
X53439686Y-67989477D01*
X53497759Y-68028280D01*
X51626886Y-69899153D01*
X51560570Y-69739052D01*
X51388227Y-69481123D01*
X51168877Y-69261773D01*
X51098876Y-69215000D01*
X51168877Y-69168227D01*
X51388227Y-68948877D01*
X51560570Y-68690948D01*
X51679282Y-68404352D01*
X51739800Y-68100104D01*
X51739800Y-67789896D01*
X51679282Y-67485648D01*
X51560570Y-67199052D01*
X51388227Y-66941123D01*
X51168877Y-66721773D01*
X51032286Y-66630505D01*
X51077871Y-66497476D01*
X50165000Y-65584605D01*
X49252129Y-66497476D01*
X49297714Y-66630505D01*
X49161123Y-66721773D01*
X48941773Y-66941123D01*
X48769430Y-67199052D01*
X48650718Y-67485648D01*
X48590200Y-67789896D01*
X48590200Y-68100104D01*
X48650718Y-68404352D01*
X48769430Y-68690948D01*
X48941773Y-68948877D01*
X49161123Y-69168227D01*
X49231124Y-69215000D01*
X49161123Y-69261773D01*
X48941773Y-69481123D01*
X48769430Y-69739052D01*
X48650718Y-70025648D01*
X48600248Y-70279380D01*
X43790845Y-65469977D01*
X48583916Y-65469977D01*
X48626973Y-65777184D01*
X48729135Y-66070086D01*
X48814277Y-66229377D01*
X49072524Y-66317871D01*
X49985395Y-65405000D01*
X50344605Y-65405000D01*
X51257476Y-66317871D01*
X51515723Y-66229377D01*
X51650597Y-65950024D01*
X51728381Y-65649725D01*
X51746084Y-65340023D01*
X51703027Y-65032816D01*
X51600865Y-64739914D01*
X51515723Y-64580623D01*
X51257476Y-64492129D01*
X50344605Y-65405000D01*
X49985395Y-65405000D01*
X49072524Y-64492129D01*
X48814277Y-64580623D01*
X48679403Y-64859976D01*
X48601619Y-65160275D01*
X48583916Y-65469977D01*
X43790845Y-65469977D01*
X41564242Y-63243375D01*
X41564237Y-63243369D01*
X41540176Y-63219308D01*
X41579800Y-63020104D01*
X41579800Y-62709896D01*
X41540176Y-62510691D01*
X46420972Y-57629896D01*
X48590200Y-57629896D01*
X48590200Y-57940104D01*
X48650718Y-58244352D01*
X48769430Y-58530948D01*
X48941773Y-58788877D01*
X49161123Y-59008227D01*
X49231124Y-59055000D01*
X49161123Y-59101773D01*
X48941773Y-59321123D01*
X48769430Y-59579052D01*
X48650718Y-59865648D01*
X48590200Y-60169896D01*
X48590200Y-60480104D01*
X48650718Y-60784352D01*
X48769430Y-61070948D01*
X48941773Y-61328877D01*
X49161123Y-61548227D01*
X49231124Y-61595000D01*
X49161123Y-61641773D01*
X48941773Y-61861123D01*
X48769430Y-62119052D01*
X48650718Y-62405648D01*
X48590200Y-62709896D01*
X48590200Y-63020104D01*
X48650718Y-63324352D01*
X48769430Y-63610948D01*
X48941773Y-63868877D01*
X49161123Y-64088227D01*
X49297714Y-64179495D01*
X49252129Y-64312524D01*
X50165000Y-65225395D01*
X51077871Y-64312524D01*
X51032286Y-64179495D01*
X51168877Y-64088227D01*
X51388227Y-63868877D01*
X51560570Y-63610948D01*
X51679282Y-63324352D01*
X51739800Y-63020104D01*
X51739800Y-62709896D01*
X51679282Y-62405648D01*
X51560570Y-62119052D01*
X51388227Y-61861123D01*
X51168877Y-61641773D01*
X51098876Y-61595000D01*
X51168877Y-61548227D01*
X51388227Y-61328877D01*
X51560570Y-61070948D01*
X51679282Y-60784352D01*
X51739800Y-60480104D01*
X51739800Y-60169896D01*
X51679282Y-59865648D01*
X51560570Y-59579052D01*
X51388227Y-59321123D01*
X51168877Y-59101773D01*
X51098876Y-59055000D01*
X51168877Y-59008227D01*
X51388227Y-58788877D01*
X51560570Y-58530948D01*
X51679282Y-58244352D01*
X51739800Y-57940104D01*
X51739800Y-57629896D01*
X51679282Y-57325648D01*
X51560570Y-57039052D01*
X51388227Y-56781123D01*
X51168877Y-56561773D01*
X50910948Y-56389430D01*
X50624352Y-56270718D01*
X50320104Y-56210200D01*
X50009896Y-56210200D01*
X49705648Y-56270718D01*
X49419052Y-56389430D01*
X49161123Y-56561773D01*
X48941773Y-56781123D01*
X48769430Y-57039052D01*
X48650718Y-57325648D01*
X48590200Y-57629896D01*
X46420972Y-57629896D01*
X47841008Y-56209860D01*
X51771600Y-56209860D01*
X51771600Y-56413738D01*
X51811374Y-56613697D01*
X51889395Y-56802055D01*
X52002663Y-56971573D01*
X52072001Y-57040911D01*
X52072000Y-59271677D01*
X52068324Y-59309000D01*
X52072000Y-59346322D01*
X52072000Y-59346332D01*
X52082997Y-59457985D01*
X52119722Y-59579052D01*
X52126454Y-59601246D01*
X52197026Y-59733276D01*
X52236871Y-59781826D01*
X52291999Y-59849001D01*
X52321003Y-59872804D01*
X54655801Y-62207603D01*
X54679599Y-62236601D01*
X54795324Y-62331574D01*
X54927353Y-62402146D01*
X55070614Y-62445603D01*
X55182267Y-62456600D01*
X55182276Y-62456600D01*
X55219599Y-62460276D01*
X55256922Y-62456600D01*
X68695078Y-62456600D01*
X68732400Y-62460276D01*
X68769722Y-62456600D01*
X68769733Y-62456600D01*
X68881386Y-62445603D01*
X69024647Y-62402146D01*
X69156676Y-62331574D01*
X69272401Y-62236601D01*
X69296204Y-62207597D01*
X70296223Y-61207579D01*
X70583896Y-61264800D01*
X70894104Y-61264800D01*
X71198352Y-61204282D01*
X71484948Y-61085570D01*
X71742877Y-60913227D01*
X71962227Y-60693877D01*
X72134570Y-60435948D01*
X72253282Y-60149352D01*
X72313800Y-59845104D01*
X72313800Y-59534896D01*
X72253282Y-59230648D01*
X72134570Y-58944052D01*
X71962227Y-58686123D01*
X71742877Y-58466773D01*
X71606286Y-58375505D01*
X71651871Y-58242476D01*
X70739000Y-57329605D01*
X69826129Y-58242476D01*
X69871714Y-58375505D01*
X69735123Y-58466773D01*
X69515773Y-58686123D01*
X69343430Y-58944052D01*
X69224718Y-59230648D01*
X69164200Y-59534896D01*
X69164200Y-59845104D01*
X69221421Y-60132777D01*
X68417599Y-60936600D01*
X55534402Y-60936600D01*
X53592000Y-58994199D01*
X53592000Y-57214977D01*
X69157916Y-57214977D01*
X69200973Y-57522184D01*
X69303135Y-57815086D01*
X69388277Y-57974377D01*
X69646524Y-58062871D01*
X70559395Y-57150000D01*
X70918605Y-57150000D01*
X71831476Y-58062871D01*
X72089723Y-57974377D01*
X72224597Y-57695024D01*
X72302381Y-57394725D01*
X72320084Y-57085023D01*
X72277027Y-56777816D01*
X72174865Y-56484914D01*
X72089723Y-56325623D01*
X71831476Y-56237129D01*
X70918605Y-57150000D01*
X70559395Y-57150000D01*
X69646524Y-56237129D01*
X69388277Y-56325623D01*
X69253403Y-56604976D01*
X69175619Y-56905275D01*
X69157916Y-57214977D01*
X53592000Y-57214977D01*
X53592000Y-56990110D01*
X53610537Y-56971573D01*
X53723805Y-56802055D01*
X53801826Y-56613697D01*
X53841600Y-56413738D01*
X53841600Y-56209860D01*
X53801826Y-56009901D01*
X53723805Y-55821543D01*
X53610537Y-55652025D01*
X53466374Y-55507862D01*
X53296856Y-55394594D01*
X53108498Y-55316573D01*
X52908539Y-55276799D01*
X52704661Y-55276799D01*
X52504702Y-55316573D01*
X52316344Y-55394594D01*
X52146826Y-55507862D01*
X52002663Y-55652025D01*
X51889395Y-55821543D01*
X51811374Y-56009901D01*
X51771600Y-56209860D01*
X47841008Y-56209860D01*
X49595972Y-54454896D01*
X69164200Y-54454896D01*
X69164200Y-54765104D01*
X69224718Y-55069352D01*
X69343430Y-55355948D01*
X69515773Y-55613877D01*
X69735123Y-55833227D01*
X69871714Y-55924495D01*
X69826129Y-56057524D01*
X70739000Y-56970395D01*
X71651871Y-56057524D01*
X71606286Y-55924495D01*
X71742877Y-55833227D01*
X71962227Y-55613877D01*
X72134570Y-55355948D01*
X72253282Y-55069352D01*
X72313800Y-54765104D01*
X72313800Y-54454896D01*
X72253282Y-54150648D01*
X72134570Y-53864052D01*
X71962227Y-53606123D01*
X71742877Y-53386773D01*
X71484948Y-53214430D01*
X71198352Y-53095718D01*
X70894104Y-53035200D01*
X70583896Y-53035200D01*
X70279648Y-53095718D01*
X69993052Y-53214430D01*
X69735123Y-53386773D01*
X69515773Y-53606123D01*
X69343430Y-53864052D01*
X69224718Y-54150648D01*
X69164200Y-54454896D01*
X49595972Y-54454896D01*
X50726432Y-53324437D01*
X50758291Y-53298291D01*
X50862636Y-53171146D01*
X50940172Y-53026087D01*
X50987918Y-52868689D01*
X51000000Y-52746019D01*
X51004040Y-52705000D01*
X51000000Y-52663982D01*
X51000000Y-49828061D01*
X52413000Y-49828061D01*
X52413000Y-50031939D01*
X52452774Y-50231898D01*
X52530795Y-50420256D01*
X52644063Y-50589774D01*
X52788226Y-50733937D01*
X52957744Y-50847205D01*
X53146102Y-50925226D01*
X53346061Y-50965000D01*
X53408198Y-50965000D01*
X53700865Y-51257667D01*
X53692795Y-51269744D01*
X53614774Y-51458102D01*
X53575000Y-51658061D01*
X53575000Y-51861939D01*
X53614774Y-52061898D01*
X53692795Y-52250256D01*
X53806063Y-52419774D01*
X53950226Y-52563937D01*
X54119744Y-52677205D01*
X54308102Y-52755226D01*
X54508061Y-52795000D01*
X54711939Y-52795000D01*
X54911898Y-52755226D01*
X55100256Y-52677205D01*
X55269774Y-52563937D01*
X55413937Y-52419774D01*
X55527205Y-52250256D01*
X55605226Y-52061898D01*
X55645000Y-51861939D01*
X55645000Y-51658061D01*
X55625495Y-51560000D01*
X66812819Y-51560000D01*
X66975773Y-51803877D01*
X67195123Y-52023227D01*
X67453052Y-52195570D01*
X67739648Y-52314282D01*
X68043896Y-52374800D01*
X68354104Y-52374800D01*
X68658352Y-52314282D01*
X68944948Y-52195570D01*
X69202877Y-52023227D01*
X69333628Y-51892476D01*
X69826129Y-51892476D01*
X69914623Y-52150723D01*
X70193976Y-52285597D01*
X70494275Y-52363381D01*
X70803977Y-52381084D01*
X71111184Y-52338027D01*
X71404086Y-52235865D01*
X71563377Y-52150723D01*
X71651871Y-51892476D01*
X70739000Y-50979605D01*
X69826129Y-51892476D01*
X69333628Y-51892476D01*
X69422227Y-51803877D01*
X69513495Y-51667286D01*
X69646524Y-51712871D01*
X70559395Y-50800000D01*
X70918605Y-50800000D01*
X71831476Y-51712871D01*
X72089723Y-51624377D01*
X72224597Y-51345024D01*
X72302381Y-51044725D01*
X72320084Y-50735023D01*
X72277027Y-50427816D01*
X72174865Y-50134914D01*
X72089723Y-49975623D01*
X71831476Y-49887129D01*
X70918605Y-50800000D01*
X70559395Y-50800000D01*
X69646524Y-49887129D01*
X69513495Y-49932714D01*
X69422227Y-49796123D01*
X69202877Y-49576773D01*
X69132876Y-49530000D01*
X69202877Y-49483227D01*
X69422227Y-49263877D01*
X69469000Y-49193876D01*
X69515773Y-49263877D01*
X69735123Y-49483227D01*
X69871714Y-49574495D01*
X69826129Y-49707524D01*
X70739000Y-50620395D01*
X71651871Y-49707524D01*
X71606286Y-49574495D01*
X71742877Y-49483227D01*
X71962227Y-49263877D01*
X72134570Y-49005948D01*
X72253282Y-48719352D01*
X72313800Y-48415104D01*
X72313800Y-48104896D01*
X72253282Y-47800648D01*
X72134570Y-47514052D01*
X71962227Y-47256123D01*
X71742877Y-47036773D01*
X71672876Y-46990000D01*
X71742877Y-46943227D01*
X71962227Y-46723877D01*
X72134570Y-46465948D01*
X72253282Y-46179352D01*
X72313800Y-45875104D01*
X72313800Y-45564896D01*
X72253282Y-45260648D01*
X72134570Y-44974052D01*
X71962227Y-44716123D01*
X71742877Y-44496773D01*
X71484948Y-44324430D01*
X71198352Y-44205718D01*
X70894104Y-44145200D01*
X70583896Y-44145200D01*
X70279648Y-44205718D01*
X69993052Y-44324430D01*
X69735123Y-44496773D01*
X69515773Y-44716123D01*
X69469000Y-44786124D01*
X69422227Y-44716123D01*
X69202877Y-44496773D01*
X68944948Y-44324430D01*
X68658352Y-44205718D01*
X68354104Y-44145200D01*
X68043896Y-44145200D01*
X67739648Y-44205718D01*
X67453052Y-44324430D01*
X67195123Y-44496773D01*
X66975773Y-44716123D01*
X66803430Y-44974052D01*
X66684718Y-45260648D01*
X66624200Y-45564896D01*
X66624200Y-45875104D01*
X66684718Y-46179352D01*
X66803430Y-46465948D01*
X66975773Y-46723877D01*
X67195123Y-46943227D01*
X67265124Y-46990000D01*
X67195123Y-47036773D01*
X66975773Y-47256123D01*
X66812819Y-47500000D01*
X63560802Y-47500000D01*
X61233000Y-45172199D01*
X61233000Y-45110061D01*
X61193226Y-44910102D01*
X61115205Y-44721744D01*
X61001937Y-44552226D01*
X60857774Y-44408063D01*
X60688256Y-44294795D01*
X60499898Y-44216774D01*
X60299939Y-44177000D01*
X60096061Y-44177000D01*
X59896102Y-44216774D01*
X59707744Y-44294795D01*
X59538226Y-44408063D01*
X59394063Y-44552226D01*
X59280795Y-44721744D01*
X59202774Y-44910102D01*
X59163000Y-45110061D01*
X59163000Y-45313939D01*
X59202774Y-45513898D01*
X59280795Y-45702256D01*
X59394063Y-45871774D01*
X59538226Y-46015937D01*
X59707744Y-46129205D01*
X59896102Y-46207226D01*
X60096061Y-46247000D01*
X60158199Y-46247000D01*
X62682201Y-48771003D01*
X62705999Y-48800001D01*
X62734997Y-48823799D01*
X62821723Y-48894974D01*
X62896183Y-48934774D01*
X62953753Y-48965546D01*
X63097014Y-49009003D01*
X63208667Y-49020000D01*
X63208677Y-49020000D01*
X63246000Y-49023676D01*
X63283323Y-49020000D01*
X66812819Y-49020000D01*
X66975773Y-49263877D01*
X67195123Y-49483227D01*
X67265124Y-49530000D01*
X67195123Y-49576773D01*
X66975773Y-49796123D01*
X66812819Y-50040000D01*
X54632802Y-50040000D01*
X54483000Y-49890198D01*
X54483000Y-49828061D01*
X54443226Y-49628102D01*
X54365205Y-49439744D01*
X54251937Y-49270226D01*
X54107774Y-49126063D01*
X53938256Y-49012795D01*
X53749898Y-48934774D01*
X53549939Y-48895000D01*
X53346061Y-48895000D01*
X53146102Y-48934774D01*
X52957744Y-49012795D01*
X52788226Y-49126063D01*
X52644063Y-49270226D01*
X52530795Y-49439744D01*
X52452774Y-49628102D01*
X52413000Y-49828061D01*
X51000000Y-49828061D01*
X51000000Y-43573993D01*
X51133102Y-43629126D01*
X51333061Y-43668900D01*
X51432007Y-43668900D01*
X51495695Y-43822656D01*
X51608963Y-43992174D01*
X51753126Y-44136337D01*
X51922644Y-44249605D01*
X52111002Y-44327626D01*
X52310961Y-44367400D01*
X52514839Y-44367400D01*
X52714798Y-44327626D01*
X52903156Y-44249605D01*
X53072674Y-44136337D01*
X53216837Y-43992174D01*
X53330105Y-43822656D01*
X53408126Y-43634298D01*
X53447900Y-43434339D01*
X53447900Y-43372202D01*
X53629402Y-43190700D01*
X57084718Y-43190700D01*
X57107274Y-43304098D01*
X57185295Y-43492456D01*
X57298563Y-43661974D01*
X57442726Y-43806137D01*
X57612244Y-43919405D01*
X57800602Y-43997426D01*
X58000561Y-44037200D01*
X58204439Y-44037200D01*
X58404398Y-43997426D01*
X58592756Y-43919405D01*
X58762274Y-43806137D01*
X58906437Y-43661974D01*
X59019705Y-43492456D01*
X59097726Y-43304098D01*
X59137500Y-43104139D01*
X59137500Y-42900261D01*
X59097726Y-42700302D01*
X59019705Y-42511944D01*
X58906437Y-42342426D01*
X58768506Y-42204495D01*
X59247223Y-41725779D01*
X59534896Y-41783000D01*
X59845104Y-41783000D01*
X60149352Y-41722482D01*
X60435948Y-41603770D01*
X60693877Y-41431427D01*
X60913227Y-41212077D01*
X61085570Y-40954148D01*
X61204282Y-40667552D01*
X61240614Y-40484896D01*
X67005200Y-40484896D01*
X67005200Y-40795104D01*
X67065718Y-41099352D01*
X67184430Y-41385948D01*
X67356773Y-41643877D01*
X67576123Y-41863227D01*
X67834052Y-42035570D01*
X68120648Y-42154282D01*
X68424896Y-42214800D01*
X68735104Y-42214800D01*
X69039352Y-42154282D01*
X69325948Y-42035570D01*
X69583877Y-41863227D01*
X69714628Y-41732476D01*
X70207129Y-41732476D01*
X70295623Y-41990723D01*
X70574976Y-42125597D01*
X70875275Y-42203381D01*
X71184977Y-42221084D01*
X71492184Y-42178027D01*
X71785086Y-42075865D01*
X71944377Y-41990723D01*
X72032871Y-41732476D01*
X71120000Y-40819605D01*
X70207129Y-41732476D01*
X69714628Y-41732476D01*
X69803227Y-41643877D01*
X69894495Y-41507286D01*
X70027524Y-41552871D01*
X70940395Y-40640000D01*
X71299605Y-40640000D01*
X72212476Y-41552871D01*
X72470723Y-41464377D01*
X72605597Y-41185024D01*
X72683381Y-40884725D01*
X72701084Y-40575023D01*
X72658027Y-40267816D01*
X72555865Y-39974914D01*
X72470723Y-39815623D01*
X72212476Y-39727129D01*
X71299605Y-40640000D01*
X70940395Y-40640000D01*
X70027524Y-39727129D01*
X69894495Y-39772714D01*
X69803227Y-39636123D01*
X69714628Y-39547524D01*
X70207129Y-39547524D01*
X71120000Y-40460395D01*
X72032871Y-39547524D01*
X71944377Y-39289277D01*
X71665024Y-39154403D01*
X71364725Y-39076619D01*
X71055023Y-39058916D01*
X70747816Y-39101973D01*
X70454914Y-39204135D01*
X70295623Y-39289277D01*
X70207129Y-39547524D01*
X69714628Y-39547524D01*
X69583877Y-39416773D01*
X69325948Y-39244430D01*
X69039352Y-39125718D01*
X68735104Y-39065200D01*
X68424896Y-39065200D01*
X68120648Y-39125718D01*
X67834052Y-39244430D01*
X67576123Y-39416773D01*
X67356773Y-39636123D01*
X67184430Y-39894052D01*
X67065718Y-40180648D01*
X67005200Y-40484896D01*
X61240614Y-40484896D01*
X61264800Y-40363304D01*
X61264800Y-40053096D01*
X61204282Y-39748848D01*
X61085570Y-39462252D01*
X60913227Y-39204323D01*
X60693877Y-38984973D01*
X60435948Y-38812630D01*
X60308888Y-38760000D01*
X73000000Y-38760000D01*
X73000001Y-72111000D01*
G37*
X73000001Y-72111000D02*
X51776773Y-72111000D01*
X56717235Y-67170539D01*
X62306671Y-67170539D01*
X62351448Y-67215315D01*
X62380314Y-67360438D01*
X62458335Y-67548796D01*
X62571603Y-67718314D01*
X62715766Y-67862477D01*
X62885284Y-67975745D01*
X63073642Y-68053766D01*
X63273601Y-68093540D01*
X63477479Y-68093540D01*
X63677438Y-68053766D01*
X63865796Y-67975745D01*
X64035314Y-67862477D01*
X64179477Y-67718314D01*
X64292745Y-67548796D01*
X64370766Y-67360438D01*
X64410540Y-67160479D01*
X64410540Y-66956601D01*
X64370766Y-66756642D01*
X64292745Y-66568284D01*
X64179477Y-66398766D01*
X64035314Y-66254603D01*
X63865796Y-66141335D01*
X63677438Y-66063314D01*
X63532315Y-66034448D01*
X63271984Y-65774117D01*
X63245830Y-65742248D01*
X63118685Y-65637903D01*
X62973626Y-65560367D01*
X62816228Y-65512621D01*
X62693558Y-65500539D01*
X62693557Y-65500539D01*
X62652539Y-65496499D01*
X62611521Y-65500539D01*
X56412374Y-65500539D01*
X56371366Y-65496500D01*
X56330358Y-65500539D01*
X56330348Y-65500539D01*
X56207678Y-65512621D01*
X56050280Y-65560367D01*
X55905221Y-65637903D01*
X55778076Y-65742248D01*
X55751926Y-65774112D01*
X54942200Y-66583838D01*
X54903397Y-66525766D01*
X54759234Y-66381603D01*
X54589716Y-66268335D01*
X54401358Y-66190314D01*
X54201399Y-66150540D01*
X53997521Y-66150540D01*
X53797562Y-66190314D01*
X53609204Y-66268335D01*
X53439686Y-66381603D01*
X53295523Y-66525766D01*
X53182255Y-66695284D01*
X53104234Y-66883642D01*
X53064460Y-67083601D01*
X53064460Y-67287479D01*
X53104234Y-67487438D01*
X53182255Y-67675796D01*
X53295523Y-67845314D01*
X53439686Y-67989477D01*
X53497759Y-68028280D01*
X51626886Y-69899153D01*
X51560570Y-69739052D01*
X51388227Y-69481123D01*
X51168877Y-69261773D01*
X51098876Y-69215000D01*
X51168877Y-69168227D01*
X51388227Y-68948877D01*
X51560570Y-68690948D01*
X51679282Y-68404352D01*
X51739800Y-68100104D01*
X51739800Y-67789896D01*
X51679282Y-67485648D01*
X51560570Y-67199052D01*
X51388227Y-66941123D01*
X51168877Y-66721773D01*
X51032286Y-66630505D01*
X51077871Y-66497476D01*
X50165000Y-65584605D01*
X49252129Y-66497476D01*
X49297714Y-66630505D01*
X49161123Y-66721773D01*
X48941773Y-66941123D01*
X48769430Y-67199052D01*
X48650718Y-67485648D01*
X48590200Y-67789896D01*
X48590200Y-68100104D01*
X48650718Y-68404352D01*
X48769430Y-68690948D01*
X48941773Y-68948877D01*
X49161123Y-69168227D01*
X49231124Y-69215000D01*
X49161123Y-69261773D01*
X48941773Y-69481123D01*
X48769430Y-69739052D01*
X48650718Y-70025648D01*
X48600248Y-70279380D01*
X43790845Y-65469977D01*
X48583916Y-65469977D01*
X48626973Y-65777184D01*
X48729135Y-66070086D01*
X48814277Y-66229377D01*
X49072524Y-66317871D01*
X49985395Y-65405000D01*
X50344605Y-65405000D01*
X51257476Y-66317871D01*
X51515723Y-66229377D01*
X51650597Y-65950024D01*
X51728381Y-65649725D01*
X51746084Y-65340023D01*
X51703027Y-65032816D01*
X51600865Y-64739914D01*
X51515723Y-64580623D01*
X51257476Y-64492129D01*
X50344605Y-65405000D01*
X49985395Y-65405000D01*
X49072524Y-64492129D01*
X48814277Y-64580623D01*
X48679403Y-64859976D01*
X48601619Y-65160275D01*
X48583916Y-65469977D01*
X43790845Y-65469977D01*
X41564242Y-63243375D01*
X41564237Y-63243369D01*
X41540176Y-63219308D01*
X41579800Y-63020104D01*
X41579800Y-62709896D01*
X41540176Y-62510691D01*
X46420972Y-57629896D01*
X48590200Y-57629896D01*
X48590200Y-57940104D01*
X48650718Y-58244352D01*
X48769430Y-58530948D01*
X48941773Y-58788877D01*
X49161123Y-59008227D01*
X49231124Y-59055000D01*
X49161123Y-59101773D01*
X48941773Y-59321123D01*
X48769430Y-59579052D01*
X48650718Y-59865648D01*
X48590200Y-60169896D01*
X48590200Y-60480104D01*
X48650718Y-60784352D01*
X48769430Y-61070948D01*
X48941773Y-61328877D01*
X49161123Y-61548227D01*
X49231124Y-61595000D01*
X49161123Y-61641773D01*
X48941773Y-61861123D01*
X48769430Y-62119052D01*
X48650718Y-62405648D01*
X48590200Y-62709896D01*
X48590200Y-63020104D01*
X48650718Y-63324352D01*
X48769430Y-63610948D01*
X48941773Y-63868877D01*
X49161123Y-64088227D01*
X49297714Y-64179495D01*
X49252129Y-64312524D01*
X50165000Y-65225395D01*
X51077871Y-64312524D01*
X51032286Y-64179495D01*
X51168877Y-64088227D01*
X51388227Y-63868877D01*
X51560570Y-63610948D01*
X51679282Y-63324352D01*
X51739800Y-63020104D01*
X51739800Y-62709896D01*
X51679282Y-62405648D01*
X51560570Y-62119052D01*
X51388227Y-61861123D01*
X51168877Y-61641773D01*
X51098876Y-61595000D01*
X51168877Y-61548227D01*
X51388227Y-61328877D01*
X51560570Y-61070948D01*
X51679282Y-60784352D01*
X51739800Y-60480104D01*
X51739800Y-60169896D01*
X51679282Y-59865648D01*
X51560570Y-59579052D01*
X51388227Y-59321123D01*
X51168877Y-59101773D01*
X51098876Y-59055000D01*
X51168877Y-59008227D01*
X51388227Y-58788877D01*
X51560570Y-58530948D01*
X51679282Y-58244352D01*
X51739800Y-57940104D01*
X51739800Y-57629896D01*
X51679282Y-57325648D01*
X51560570Y-57039052D01*
X51388227Y-56781123D01*
X51168877Y-56561773D01*
X50910948Y-56389430D01*
X50624352Y-56270718D01*
X50320104Y-56210200D01*
X50009896Y-56210200D01*
X49705648Y-56270718D01*
X49419052Y-56389430D01*
X49161123Y-56561773D01*
X48941773Y-56781123D01*
X48769430Y-57039052D01*
X48650718Y-57325648D01*
X48590200Y-57629896D01*
X46420972Y-57629896D01*
X47841008Y-56209860D01*
X51771600Y-56209860D01*
X51771600Y-56413738D01*
X51811374Y-56613697D01*
X51889395Y-56802055D01*
X52002663Y-56971573D01*
X52072001Y-57040911D01*
X52072000Y-59271677D01*
X52068324Y-59309000D01*
X52072000Y-59346322D01*
X52072000Y-59346332D01*
X52082997Y-59457985D01*
X52119722Y-59579052D01*
X52126454Y-59601246D01*
X52197026Y-59733276D01*
X52236871Y-59781826D01*
X52291999Y-59849001D01*
X52321003Y-59872804D01*
X54655801Y-62207603D01*
X54679599Y-62236601D01*
X54795324Y-62331574D01*
X54927353Y-62402146D01*
X55070614Y-62445603D01*
X55182267Y-62456600D01*
X55182276Y-62456600D01*
X55219599Y-62460276D01*
X55256922Y-62456600D01*
X68695078Y-62456600D01*
X68732400Y-62460276D01*
X68769722Y-62456600D01*
X68769733Y-62456600D01*
X68881386Y-62445603D01*
X69024647Y-62402146D01*
X69156676Y-62331574D01*
X69272401Y-62236601D01*
X69296204Y-62207597D01*
X70296223Y-61207579D01*
X70583896Y-61264800D01*
X70894104Y-61264800D01*
X71198352Y-61204282D01*
X71484948Y-61085570D01*
X71742877Y-60913227D01*
X71962227Y-60693877D01*
X72134570Y-60435948D01*
X72253282Y-60149352D01*
X72313800Y-59845104D01*
X72313800Y-59534896D01*
X72253282Y-59230648D01*
X72134570Y-58944052D01*
X71962227Y-58686123D01*
X71742877Y-58466773D01*
X71606286Y-58375505D01*
X71651871Y-58242476D01*
X70739000Y-57329605D01*
X69826129Y-58242476D01*
X69871714Y-58375505D01*
X69735123Y-58466773D01*
X69515773Y-58686123D01*
X69343430Y-58944052D01*
X69224718Y-59230648D01*
X69164200Y-59534896D01*
X69164200Y-59845104D01*
X69221421Y-60132777D01*
X68417599Y-60936600D01*
X55534402Y-60936600D01*
X53592000Y-58994199D01*
X53592000Y-57214977D01*
X69157916Y-57214977D01*
X69200973Y-57522184D01*
X69303135Y-57815086D01*
X69388277Y-57974377D01*
X69646524Y-58062871D01*
X70559395Y-57150000D01*
X70918605Y-57150000D01*
X71831476Y-58062871D01*
X72089723Y-57974377D01*
X72224597Y-57695024D01*
X72302381Y-57394725D01*
X72320084Y-57085023D01*
X72277027Y-56777816D01*
X72174865Y-56484914D01*
X72089723Y-56325623D01*
X71831476Y-56237129D01*
X70918605Y-57150000D01*
X70559395Y-57150000D01*
X69646524Y-56237129D01*
X69388277Y-56325623D01*
X69253403Y-56604976D01*
X69175619Y-56905275D01*
X69157916Y-57214977D01*
X53592000Y-57214977D01*
X53592000Y-56990110D01*
X53610537Y-56971573D01*
X53723805Y-56802055D01*
X53801826Y-56613697D01*
X53841600Y-56413738D01*
X53841600Y-56209860D01*
X53801826Y-56009901D01*
X53723805Y-55821543D01*
X53610537Y-55652025D01*
X53466374Y-55507862D01*
X53296856Y-55394594D01*
X53108498Y-55316573D01*
X52908539Y-55276799D01*
X52704661Y-55276799D01*
X52504702Y-55316573D01*
X52316344Y-55394594D01*
X52146826Y-55507862D01*
X52002663Y-55652025D01*
X51889395Y-55821543D01*
X51811374Y-56009901D01*
X51771600Y-56209860D01*
X47841008Y-56209860D01*
X49595972Y-54454896D01*
X69164200Y-54454896D01*
X69164200Y-54765104D01*
X69224718Y-55069352D01*
X69343430Y-55355948D01*
X69515773Y-55613877D01*
X69735123Y-55833227D01*
X69871714Y-55924495D01*
X69826129Y-56057524D01*
X70739000Y-56970395D01*
X71651871Y-56057524D01*
X71606286Y-55924495D01*
X71742877Y-55833227D01*
X71962227Y-55613877D01*
X72134570Y-55355948D01*
X72253282Y-55069352D01*
X72313800Y-54765104D01*
X72313800Y-54454896D01*
X72253282Y-54150648D01*
X72134570Y-53864052D01*
X71962227Y-53606123D01*
X71742877Y-53386773D01*
X71484948Y-53214430D01*
X71198352Y-53095718D01*
X70894104Y-53035200D01*
X70583896Y-53035200D01*
X70279648Y-53095718D01*
X69993052Y-53214430D01*
X69735123Y-53386773D01*
X69515773Y-53606123D01*
X69343430Y-53864052D01*
X69224718Y-54150648D01*
X69164200Y-54454896D01*
X49595972Y-54454896D01*
X50726432Y-53324437D01*
X50758291Y-53298291D01*
X50862636Y-53171146D01*
X50940172Y-53026087D01*
X50987918Y-52868689D01*
X51000000Y-52746019D01*
X51004040Y-52705000D01*
X51000000Y-52663982D01*
X51000000Y-49828061D01*
X52413000Y-49828061D01*
X52413000Y-50031939D01*
X52452774Y-50231898D01*
X52530795Y-50420256D01*
X52644063Y-50589774D01*
X52788226Y-50733937D01*
X52957744Y-50847205D01*
X53146102Y-50925226D01*
X53346061Y-50965000D01*
X53408198Y-50965000D01*
X53700865Y-51257667D01*
X53692795Y-51269744D01*
X53614774Y-51458102D01*
X53575000Y-51658061D01*
X53575000Y-51861939D01*
X53614774Y-52061898D01*
X53692795Y-52250256D01*
X53806063Y-52419774D01*
X53950226Y-52563937D01*
X54119744Y-52677205D01*
X54308102Y-52755226D01*
X54508061Y-52795000D01*
X54711939Y-52795000D01*
X54911898Y-52755226D01*
X55100256Y-52677205D01*
X55269774Y-52563937D01*
X55413937Y-52419774D01*
X55527205Y-52250256D01*
X55605226Y-52061898D01*
X55645000Y-51861939D01*
X55645000Y-51658061D01*
X55625495Y-51560000D01*
X66812819Y-51560000D01*
X66975773Y-51803877D01*
X67195123Y-52023227D01*
X67453052Y-52195570D01*
X67739648Y-52314282D01*
X68043896Y-52374800D01*
X68354104Y-52374800D01*
X68658352Y-52314282D01*
X68944948Y-52195570D01*
X69202877Y-52023227D01*
X69333628Y-51892476D01*
X69826129Y-51892476D01*
X69914623Y-52150723D01*
X70193976Y-52285597D01*
X70494275Y-52363381D01*
X70803977Y-52381084D01*
X71111184Y-52338027D01*
X71404086Y-52235865D01*
X71563377Y-52150723D01*
X71651871Y-51892476D01*
X70739000Y-50979605D01*
X69826129Y-51892476D01*
X69333628Y-51892476D01*
X69422227Y-51803877D01*
X69513495Y-51667286D01*
X69646524Y-51712871D01*
X70559395Y-50800000D01*
X70918605Y-50800000D01*
X71831476Y-51712871D01*
X72089723Y-51624377D01*
X72224597Y-51345024D01*
X72302381Y-51044725D01*
X72320084Y-50735023D01*
X72277027Y-50427816D01*
X72174865Y-50134914D01*
X72089723Y-49975623D01*
X71831476Y-49887129D01*
X70918605Y-50800000D01*
X70559395Y-50800000D01*
X69646524Y-49887129D01*
X69513495Y-49932714D01*
X69422227Y-49796123D01*
X69202877Y-49576773D01*
X69132876Y-49530000D01*
X69202877Y-49483227D01*
X69422227Y-49263877D01*
X69469000Y-49193876D01*
X69515773Y-49263877D01*
X69735123Y-49483227D01*
X69871714Y-49574495D01*
X69826129Y-49707524D01*
X70739000Y-50620395D01*
X71651871Y-49707524D01*
X71606286Y-49574495D01*
X71742877Y-49483227D01*
X71962227Y-49263877D01*
X72134570Y-49005948D01*
X72253282Y-48719352D01*
X72313800Y-48415104D01*
X72313800Y-48104896D01*
X72253282Y-47800648D01*
X72134570Y-47514052D01*
X71962227Y-47256123D01*
X71742877Y-47036773D01*
X71672876Y-46990000D01*
X71742877Y-46943227D01*
X71962227Y-46723877D01*
X72134570Y-46465948D01*
X72253282Y-46179352D01*
X72313800Y-45875104D01*
X72313800Y-45564896D01*
X72253282Y-45260648D01*
X72134570Y-44974052D01*
X71962227Y-44716123D01*
X71742877Y-44496773D01*
X71484948Y-44324430D01*
X71198352Y-44205718D01*
X70894104Y-44145200D01*
X70583896Y-44145200D01*
X70279648Y-44205718D01*
X69993052Y-44324430D01*
X69735123Y-44496773D01*
X69515773Y-44716123D01*
X69469000Y-44786124D01*
X69422227Y-44716123D01*
X69202877Y-44496773D01*
X68944948Y-44324430D01*
X68658352Y-44205718D01*
X68354104Y-44145200D01*
X68043896Y-44145200D01*
X67739648Y-44205718D01*
X67453052Y-44324430D01*
X67195123Y-44496773D01*
X66975773Y-44716123D01*
X66803430Y-44974052D01*
X66684718Y-45260648D01*
X66624200Y-45564896D01*
X66624200Y-45875104D01*
X66684718Y-46179352D01*
X66803430Y-46465948D01*
X66975773Y-46723877D01*
X67195123Y-46943227D01*
X67265124Y-46990000D01*
X67195123Y-47036773D01*
X66975773Y-47256123D01*
X66812819Y-47500000D01*
X63560802Y-47500000D01*
X61233000Y-45172199D01*
X61233000Y-45110061D01*
X61193226Y-44910102D01*
X61115205Y-44721744D01*
X61001937Y-44552226D01*
X60857774Y-44408063D01*
X60688256Y-44294795D01*
X60499898Y-44216774D01*
X60299939Y-44177000D01*
X60096061Y-44177000D01*
X59896102Y-44216774D01*
X59707744Y-44294795D01*
X59538226Y-44408063D01*
X59394063Y-44552226D01*
X59280795Y-44721744D01*
X59202774Y-44910102D01*
X59163000Y-45110061D01*
X59163000Y-45313939D01*
X59202774Y-45513898D01*
X59280795Y-45702256D01*
X59394063Y-45871774D01*
X59538226Y-46015937D01*
X59707744Y-46129205D01*
X59896102Y-46207226D01*
X60096061Y-46247000D01*
X60158199Y-46247000D01*
X62682201Y-48771003D01*
X62705999Y-48800001D01*
X62734997Y-48823799D01*
X62821723Y-48894974D01*
X62896183Y-48934774D01*
X62953753Y-48965546D01*
X63097014Y-49009003D01*
X63208667Y-49020000D01*
X63208677Y-49020000D01*
X63246000Y-49023676D01*
X63283323Y-49020000D01*
X66812819Y-49020000D01*
X66975773Y-49263877D01*
X67195123Y-49483227D01*
X67265124Y-49530000D01*
X67195123Y-49576773D01*
X66975773Y-49796123D01*
X66812819Y-50040000D01*
X54632802Y-50040000D01*
X54483000Y-49890198D01*
X54483000Y-49828061D01*
X54443226Y-49628102D01*
X54365205Y-49439744D01*
X54251937Y-49270226D01*
X54107774Y-49126063D01*
X53938256Y-49012795D01*
X53749898Y-48934774D01*
X53549939Y-48895000D01*
X53346061Y-48895000D01*
X53146102Y-48934774D01*
X52957744Y-49012795D01*
X52788226Y-49126063D01*
X52644063Y-49270226D01*
X52530795Y-49439744D01*
X52452774Y-49628102D01*
X52413000Y-49828061D01*
X51000000Y-49828061D01*
X51000000Y-43573993D01*
X51133102Y-43629126D01*
X51333061Y-43668900D01*
X51432007Y-43668900D01*
X51495695Y-43822656D01*
X51608963Y-43992174D01*
X51753126Y-44136337D01*
X51922644Y-44249605D01*
X52111002Y-44327626D01*
X52310961Y-44367400D01*
X52514839Y-44367400D01*
X52714798Y-44327626D01*
X52903156Y-44249605D01*
X53072674Y-44136337D01*
X53216837Y-43992174D01*
X53330105Y-43822656D01*
X53408126Y-43634298D01*
X53447900Y-43434339D01*
X53447900Y-43372202D01*
X53629402Y-43190700D01*
X57084718Y-43190700D01*
X57107274Y-43304098D01*
X57185295Y-43492456D01*
X57298563Y-43661974D01*
X57442726Y-43806137D01*
X57612244Y-43919405D01*
X57800602Y-43997426D01*
X58000561Y-44037200D01*
X58204439Y-44037200D01*
X58404398Y-43997426D01*
X58592756Y-43919405D01*
X58762274Y-43806137D01*
X58906437Y-43661974D01*
X59019705Y-43492456D01*
X59097726Y-43304098D01*
X59137500Y-43104139D01*
X59137500Y-42900261D01*
X59097726Y-42700302D01*
X59019705Y-42511944D01*
X58906437Y-42342426D01*
X58768506Y-42204495D01*
X59247223Y-41725779D01*
X59534896Y-41783000D01*
X59845104Y-41783000D01*
X60149352Y-41722482D01*
X60435948Y-41603770D01*
X60693877Y-41431427D01*
X60913227Y-41212077D01*
X61085570Y-40954148D01*
X61204282Y-40667552D01*
X61240614Y-40484896D01*
X67005200Y-40484896D01*
X67005200Y-40795104D01*
X67065718Y-41099352D01*
X67184430Y-41385948D01*
X67356773Y-41643877D01*
X67576123Y-41863227D01*
X67834052Y-42035570D01*
X68120648Y-42154282D01*
X68424896Y-42214800D01*
X68735104Y-42214800D01*
X69039352Y-42154282D01*
X69325948Y-42035570D01*
X69583877Y-41863227D01*
X69714628Y-41732476D01*
X70207129Y-41732476D01*
X70295623Y-41990723D01*
X70574976Y-42125597D01*
X70875275Y-42203381D01*
X71184977Y-42221084D01*
X71492184Y-42178027D01*
X71785086Y-42075865D01*
X71944377Y-41990723D01*
X72032871Y-41732476D01*
X71120000Y-40819605D01*
X70207129Y-41732476D01*
X69714628Y-41732476D01*
X69803227Y-41643877D01*
X69894495Y-41507286D01*
X70027524Y-41552871D01*
X70940395Y-40640000D01*
X71299605Y-40640000D01*
X72212476Y-41552871D01*
X72470723Y-41464377D01*
X72605597Y-41185024D01*
X72683381Y-40884725D01*
X72701084Y-40575023D01*
X72658027Y-40267816D01*
X72555865Y-39974914D01*
X72470723Y-39815623D01*
X72212476Y-39727129D01*
X71299605Y-40640000D01*
X70940395Y-40640000D01*
X70027524Y-39727129D01*
X69894495Y-39772714D01*
X69803227Y-39636123D01*
X69714628Y-39547524D01*
X70207129Y-39547524D01*
X71120000Y-40460395D01*
X72032871Y-39547524D01*
X71944377Y-39289277D01*
X71665024Y-39154403D01*
X71364725Y-39076619D01*
X71055023Y-39058916D01*
X70747816Y-39101973D01*
X70454914Y-39204135D01*
X70295623Y-39289277D01*
X70207129Y-39547524D01*
X69714628Y-39547524D01*
X69583877Y-39416773D01*
X69325948Y-39244430D01*
X69039352Y-39125718D01*
X68735104Y-39065200D01*
X68424896Y-39065200D01*
X68120648Y-39125718D01*
X67834052Y-39244430D01*
X67576123Y-39416773D01*
X67356773Y-39636123D01*
X67184430Y-39894052D01*
X67065718Y-40180648D01*
X67005200Y-40484896D01*
X61240614Y-40484896D01*
X61264800Y-40363304D01*
X61264800Y-40053096D01*
X61204282Y-39748848D01*
X61085570Y-39462252D01*
X60913227Y-39204323D01*
X60693877Y-38984973D01*
X60435948Y-38812630D01*
X60308888Y-38760000D01*
X73000000Y-38760000D01*
X73000001Y-72111000D01*
G36*
X40188027Y-41792380D02*
G01*
X40190440Y-41819776D01*
X40197667Y-41843601D01*
X40209403Y-41865557D01*
X40225197Y-41884803D01*
X40244443Y-41900597D01*
X40266399Y-41912333D01*
X40290224Y-41919560D01*
X40315000Y-41922000D01*
X42215000Y-41922000D01*
X42234645Y-41920471D01*
X42258746Y-41914228D01*
X42281165Y-41903403D01*
X42301042Y-41888412D01*
X42317613Y-41869831D01*
X42330240Y-41848374D01*
X42338438Y-41824866D01*
X42341893Y-41800211D01*
X42340471Y-41775355D01*
X42334228Y-41751254D01*
X42291000Y-41633437D01*
X42291000Y-38760000D01*
X43613060Y-38760000D01*
X43598197Y-38772197D01*
X43582403Y-38791443D01*
X43570667Y-38813399D01*
X43563440Y-38837224D01*
X43561000Y-38862000D01*
X43561000Y-44196000D01*
X43563440Y-44220776D01*
X43570667Y-44244601D01*
X43582403Y-44266557D01*
X43598197Y-44285803D01*
X43617443Y-44301597D01*
X43639399Y-44313333D01*
X43663224Y-44320560D01*
X43688000Y-44323000D01*
X47244000Y-44323000D01*
X47268776Y-44320560D01*
X47292601Y-44313333D01*
X47314557Y-44301597D01*
X47333803Y-44285803D01*
X47349597Y-44266557D01*
X47361333Y-44244601D01*
X47368560Y-44220776D01*
X47371000Y-44196000D01*
X47371000Y-38862000D01*
X47368560Y-38837224D01*
X47361333Y-38813399D01*
X47349597Y-38791443D01*
X47333803Y-38772197D01*
X47318940Y-38760000D01*
X48724463Y-38760000D01*
X48712574Y-38788702D01*
X48672800Y-38988661D01*
X48672800Y-39192539D01*
X48712574Y-39392498D01*
X48790595Y-39580856D01*
X48903863Y-39750374D01*
X48947800Y-39794311D01*
X48947801Y-41390396D01*
X48777703Y-41560494D01*
X48748699Y-41584297D01*
X48699649Y-41644065D01*
X48653726Y-41700022D01*
X48599373Y-41801709D01*
X48583154Y-41832052D01*
X48539697Y-41975313D01*
X48528700Y-42086966D01*
X48528700Y-42086976D01*
X48525024Y-42124298D01*
X48528700Y-42161621D01*
X48528701Y-46598997D01*
X48258299Y-46869400D01*
X48196161Y-46869400D01*
X47996202Y-46909174D01*
X47807844Y-46987195D01*
X47638326Y-47100463D01*
X47494163Y-47244626D01*
X47380895Y-47414144D01*
X47302874Y-47602502D01*
X47263100Y-47802461D01*
X47263100Y-48006339D01*
X47302874Y-48206298D01*
X47380895Y-48394656D01*
X47494163Y-48564174D01*
X47638326Y-48708337D01*
X47807844Y-48821605D01*
X47996202Y-48899626D01*
X48196161Y-48939400D01*
X48400039Y-48939400D01*
X48599998Y-48899626D01*
X48788356Y-48821605D01*
X48957874Y-48708337D01*
X49102037Y-48564174D01*
X49215305Y-48394656D01*
X49293326Y-48206298D01*
X49330001Y-48021921D01*
X49330001Y-52359130D01*
X41569752Y-60119381D01*
X41519282Y-59865648D01*
X41400570Y-59579052D01*
X41228227Y-59321123D01*
X41008877Y-59101773D01*
X40938876Y-59055000D01*
X41008877Y-59008227D01*
X41228227Y-58788877D01*
X41400570Y-58530948D01*
X41519282Y-58244352D01*
X41579800Y-57940104D01*
X41579800Y-57629896D01*
X41519282Y-57325648D01*
X41400570Y-57039052D01*
X41228227Y-56781123D01*
X41008877Y-56561773D01*
X40750948Y-56389430D01*
X40464352Y-56270718D01*
X40160104Y-56210200D01*
X39849896Y-56210200D01*
X39545648Y-56270718D01*
X39259052Y-56389430D01*
X39001123Y-56561773D01*
X38781773Y-56781123D01*
X38760000Y-56813709D01*
X38760000Y-38760000D01*
X40250596Y-38760000D01*
X40188027Y-41792380D01*
G37*
X40188027Y-41792380D02*
X40190440Y-41819776D01*
X40197667Y-41843601D01*
X40209403Y-41865557D01*
X40225197Y-41884803D01*
X40244443Y-41900597D01*
X40266399Y-41912333D01*
X40290224Y-41919560D01*
X40315000Y-41922000D01*
X42215000Y-41922000D01*
X42234645Y-41920471D01*
X42258746Y-41914228D01*
X42281165Y-41903403D01*
X42301042Y-41888412D01*
X42317613Y-41869831D01*
X42330240Y-41848374D01*
X42338438Y-41824866D01*
X42341893Y-41800211D01*
X42340471Y-41775355D01*
X42334228Y-41751254D01*
X42291000Y-41633437D01*
X42291000Y-38760000D01*
X43613060Y-38760000D01*
X43598197Y-38772197D01*
X43582403Y-38791443D01*
X43570667Y-38813399D01*
X43563440Y-38837224D01*
X43561000Y-38862000D01*
X43561000Y-44196000D01*
X43563440Y-44220776D01*
X43570667Y-44244601D01*
X43582403Y-44266557D01*
X43598197Y-44285803D01*
X43617443Y-44301597D01*
X43639399Y-44313333D01*
X43663224Y-44320560D01*
X43688000Y-44323000D01*
X47244000Y-44323000D01*
X47268776Y-44320560D01*
X47292601Y-44313333D01*
X47314557Y-44301597D01*
X47333803Y-44285803D01*
X47349597Y-44266557D01*
X47361333Y-44244601D01*
X47368560Y-44220776D01*
X47371000Y-44196000D01*
X47371000Y-38862000D01*
X47368560Y-38837224D01*
X47361333Y-38813399D01*
X47349597Y-38791443D01*
X47333803Y-38772197D01*
X47318940Y-38760000D01*
X48724463Y-38760000D01*
X48712574Y-38788702D01*
X48672800Y-38988661D01*
X48672800Y-39192539D01*
X48712574Y-39392498D01*
X48790595Y-39580856D01*
X48903863Y-39750374D01*
X48947800Y-39794311D01*
X48947801Y-41390396D01*
X48777703Y-41560494D01*
X48748699Y-41584297D01*
X48699649Y-41644065D01*
X48653726Y-41700022D01*
X48599373Y-41801709D01*
X48583154Y-41832052D01*
X48539697Y-41975313D01*
X48528700Y-42086966D01*
X48528700Y-42086976D01*
X48525024Y-42124298D01*
X48528700Y-42161621D01*
X48528701Y-46598997D01*
X48258299Y-46869400D01*
X48196161Y-46869400D01*
X47996202Y-46909174D01*
X47807844Y-46987195D01*
X47638326Y-47100463D01*
X47494163Y-47244626D01*
X47380895Y-47414144D01*
X47302874Y-47602502D01*
X47263100Y-47802461D01*
X47263100Y-48006339D01*
X47302874Y-48206298D01*
X47380895Y-48394656D01*
X47494163Y-48564174D01*
X47638326Y-48708337D01*
X47807844Y-48821605D01*
X47996202Y-48899626D01*
X48196161Y-48939400D01*
X48400039Y-48939400D01*
X48599998Y-48899626D01*
X48788356Y-48821605D01*
X48957874Y-48708337D01*
X49102037Y-48564174D01*
X49215305Y-48394656D01*
X49293326Y-48206298D01*
X49330001Y-48021921D01*
X49330001Y-52359130D01*
X41569752Y-60119381D01*
X41519282Y-59865648D01*
X41400570Y-59579052D01*
X41228227Y-59321123D01*
X41008877Y-59101773D01*
X40938876Y-59055000D01*
X41008877Y-59008227D01*
X41228227Y-58788877D01*
X41400570Y-58530948D01*
X41519282Y-58244352D01*
X41579800Y-57940104D01*
X41579800Y-57629896D01*
X41519282Y-57325648D01*
X41400570Y-57039052D01*
X41228227Y-56781123D01*
X41008877Y-56561773D01*
X40750948Y-56389430D01*
X40464352Y-56270718D01*
X40160104Y-56210200D01*
X39849896Y-56210200D01*
X39545648Y-56270718D01*
X39259052Y-56389430D01*
X39001123Y-56561773D01*
X38781773Y-56781123D01*
X38760000Y-56813709D01*
X38760000Y-38760000D01*
X40250596Y-38760000D01*
X40188027Y-41792380D01*
G36*
X51404914Y-38772335D02*
G01*
X51245623Y-38857477D01*
X51157129Y-39115724D01*
X52070000Y-40028595D01*
X52982871Y-39115724D01*
X52894377Y-38857477D01*
X52692481Y-38760000D01*
X53991112Y-38760000D01*
X53864052Y-38812630D01*
X53606123Y-38984973D01*
X53386773Y-39204323D01*
X53295505Y-39340914D01*
X53162476Y-39295329D01*
X52249605Y-40208200D01*
X52263748Y-40222343D01*
X52084143Y-40401948D01*
X52070000Y-40387805D01*
X51157129Y-41300676D01*
X51245623Y-41558923D01*
X51329777Y-41599553D01*
X51133102Y-41638674D01*
X50948748Y-41715037D01*
X50824774Y-41591063D01*
X50655256Y-41477795D01*
X50467800Y-41400148D01*
X50467800Y-39794311D01*
X50511737Y-39750374D01*
X50621915Y-39585480D01*
X50584403Y-39663176D01*
X50506619Y-39963475D01*
X50488916Y-40273177D01*
X50531973Y-40580384D01*
X50634135Y-40873286D01*
X50719277Y-41032577D01*
X50977524Y-41121071D01*
X51890395Y-40208200D01*
X50977524Y-39295329D01*
X50719277Y-39383823D01*
X50630182Y-39568359D01*
X50703026Y-39392498D01*
X50742800Y-39192539D01*
X50742800Y-38988661D01*
X50703026Y-38788702D01*
X50691137Y-38760000D01*
X51440279Y-38760000D01*
X51404914Y-38772335D01*
G37*
X51404914Y-38772335D02*
X51245623Y-38857477D01*
X51157129Y-39115724D01*
X52070000Y-40028595D01*
X52982871Y-39115724D01*
X52894377Y-38857477D01*
X52692481Y-38760000D01*
X53991112Y-38760000D01*
X53864052Y-38812630D01*
X53606123Y-38984973D01*
X53386773Y-39204323D01*
X53295505Y-39340914D01*
X53162476Y-39295329D01*
X52249605Y-40208200D01*
X52263748Y-40222343D01*
X52084143Y-40401948D01*
X52070000Y-40387805D01*
X51157129Y-41300676D01*
X51245623Y-41558923D01*
X51329777Y-41599553D01*
X51133102Y-41638674D01*
X50948748Y-41715037D01*
X50824774Y-41591063D01*
X50655256Y-41477795D01*
X50467800Y-41400148D01*
X50467800Y-39794311D01*
X50511737Y-39750374D01*
X50621915Y-39585480D01*
X50584403Y-39663176D01*
X50506619Y-39963475D01*
X50488916Y-40273177D01*
X50531973Y-40580384D01*
X50634135Y-40873286D01*
X50719277Y-41032577D01*
X50977524Y-41121071D01*
X51890395Y-40208200D01*
X50977524Y-39295329D01*
X50719277Y-39383823D01*
X50630182Y-39568359D01*
X50703026Y-39392498D01*
X50742800Y-39192539D01*
X50742800Y-38988661D01*
X50703026Y-38788702D01*
X50691137Y-38760000D01*
X51440279Y-38760000D01*
X51404914Y-38772335D01*
M02*
